<svg width="42" height="42" viewBox="0 0 42 42" fill="none" xmlns="http://www.w3.org/2000/svg">
<path d="M41.9979 3.25315L38.7514 0L21.0009 17.7506L3.25176 0L0.00234985 3.25165L17.7514 21L0.00234985 38.7483L3.25176 42L21.0009 24.2478L38.7514 42L41.9979 38.7469L24.251 21L41.9979 3.25315Z" fill="black"/>
</svg>
