<svg width="50" height="42" viewBox="0 0 50 42" fill="none" xmlns="http://www.w3.org/2000/svg">
<path d="M0 0H50V10H0V0Z" fill="black"/>
<path d="M0 16H50V26H0V16Z" fill="black"/>
<path d="M0 32H50V42H0V32Z" fill="black"/>
</svg>
