<svg width="40" height="40" viewBox="0 0 40 40" fill="none" xmlns="http://www.w3.org/2000/svg">
<path d="M37.9999 6H1.99997C0.866628 6 0 6.86663 0 7.99997V21.3333C0 22.4666 0.866628 23.3332 1.99997 23.3332H37.9999C39.1333 23.3332 39.9999 22.4666 39.9999 21.3333V7.99997C40 6.86663 39.1333 6 37.9999 6ZM38.6667 21.3333C38.6667 21.7333 38.4 21.9999 38 21.9999H1.99997C1.59998 21.9999 1.33334 21.7333 1.33334 21.3333V7.99997C1.33334 7.59998 1.6667 7.33334 1.99997 7.33334H37.9999C38.3999 7.33334 38.6666 7.59998 38.6666 7.99997V21.3333H38.6667Z" fill="#585858"/>
<path d="M17.3333 12H22.6667C23.0667 12 23.3333 11.7333 23.3333 11.3333C23.3333 10.9334 23.0667 10.6667 22.6667 10.6667H17.3333C16.9333 10.6667 16.6667 10.9334 16.6667 11.3333C16.6667 11.7333 16.9333 12 17.3333 12Z" fill="#585858"/>
<path d="M36.6666 19.3333H3.33333C2.93334 19.3333 2.6667 19.5999 2.6667 19.9999C2.6667 20.3999 2.93334 20.6665 3.33333 20.6665H36.6666C37.0666 20.6665 37.3333 20.3999 37.3333 19.9999C37.3333 19.5999 37.0666 19.3333 36.6666 19.3333Z" fill="#585858"/>
<path d="M36.6666 16.6666H3.33333C2.93334 16.6666 2.6667 16.9333 2.6667 17.3333C2.6667 17.7333 2.93334 17.9999 3.33333 17.9999H36.6666C37.0666 17.9999 37.3333 17.7333 37.3333 17.3333C37.3333 16.9333 37.0666 16.6666 36.6666 16.6666Z" fill="#585858"/>
<path d="M20.3333 28.0666C19.6666 27.7332 19.3333 27.3332 19.3333 26.9999C19.3333 26.6665 19.7333 26.2665 20.2666 25.8665C20.6 25.7332 20.6666 25.3332 20.5333 24.9999C20.3999 24.6665 19.9999 24.5333 19.6666 24.7333C18.5999 25.3333 17.9999 26.1332 17.9999 26.9999C17.9999 27.8666 18.5999 28.6666 19.6666 29.3333C20.3333 29.6666 20.6666 30.0666 20.6666 30.4C20.6666 30.7333 20.2666 31.1333 19.6666 31.4666C19.3333 31.6 19.2 32 19.4 32.3332C19.5334 32.5332 19.7334 32.6666 20 32.6666C20.1334 32.6666 20.2 32.6666 20.3334 32.6C21.4001 32 22.0001 31.2 22.0001 30.3333C22.0001 29.4666 21.4 28.5999 20.3333 28.0666Z" fill="#585858"/>
<path d="M12.9999 29.4C12.3333 29.0666 12 28.6666 12 28.3332C12 27.9999 12.3999 27.5999 12.9333 27.1999C13.2667 27.0665 13.3999 26.6665 13.1999 26.3333C13.0666 25.9999 12.6666 25.8666 12.3333 26.0666C11.2666 26.6666 10.6666 27.4666 10.6666 28.3333C10.6666 29.2 11.2666 30 12.3333 30.6667C12.9999 31 13.3333 31.4 13.3333 31.7334C13.3333 32.0667 12.9333 32.4667 12.3333 32.8001C12 32.9334 11.8667 33.3334 12.0667 33.6667C12.2 33.8667 12.4 34 12.6667 34C12.8 34 12.8667 34 13 33.9334C14.0667 33.3334 14.6667 32.5334 14.6667 31.6667C14.6667 30.8 14.0666 29.9333 12.9999 29.4Z" fill="#585858"/>
<path d="M27.6667 29.4C27.0001 29.0666 26.6667 28.6666 26.6667 28.3332C26.6667 27.9999 27.0667 27.5999 27.6001 27.1999C27.9334 27.0665 28.0001 26.6665 27.8667 26.3333C27.7333 25.9999 27.3333 25.8666 27.0001 26.0666C25.9334 26.6666 25.3334 27.4666 25.3334 28.3333C25.3334 29.2 25.9334 30 27.0001 30.6667C27.6667 31 28.0001 31.4 28.0001 31.7334C28.0001 32.0667 27.6001 32.4667 27.0001 32.8001C26.6667 32.9334 26.5334 33.3334 26.7334 33.6667C26.8668 33.8667 27.0668 34 27.3334 34C27.4668 34 27.5334 34 27.6668 33.9334C28.7335 33.3334 29.3335 32.5334 29.3335 31.6667C29.3335 30.8 28.7333 29.9333 27.6667 29.4Z" fill="#585858"/>
</svg>
