<svg width="40" height="40" viewBox="0 0 40 40" fill="none" xmlns="http://www.w3.org/2000/svg">
<path d="M39.4128 0H0.587158C0.262756 0 0 0.262756 0 0.587158V39.4128C0 39.7372 0.262756 40 0.587158 40H9.35425C9.67865 40 9.94141 39.7372 9.94141 39.4128C9.94141 38.7509 9.92279 38.1119 9.88678 37.4951H36.908C37.2324 37.4951 37.4951 37.2324 37.4951 36.908V12.7985C37.4951 12.4741 37.2324 12.2113 36.908 12.2113C36.5839 12.2113 36.3208 12.4741 36.3208 12.7985V36.3208H9.79401C9.74762 35.8633 9.69055 35.4196 9.6225 34.9902H18.7476C19.072 34.9902 19.3347 34.7275 19.3347 34.4031V21.8787C19.3347 21.5546 19.072 21.2915 18.7476 21.2915H14.1385C14.3103 20.8661 14.4748 20.4221 14.6323 19.9609H18.7476C19.072 19.9609 19.3347 19.6979 19.3347 19.3738V6.84937C19.3347 6.52496 19.072 6.26221 18.7476 6.26221H16.8027C16.8152 5.82214 16.8231 5.37842 16.8271 4.93164H36.3208V10.0195C36.3208 10.3439 36.5839 10.6067 36.908 10.6067C37.2324 10.6067 37.4951 10.3439 37.4951 10.0195V4.93164H39.4128C39.7372 4.93164 40 4.66858 40 4.34448V0.587158C40 0.262756 39.7372 0 39.4128 0ZM8.14087 28.1018V29.4324H1.17432V28.1018H8.14087ZM1.17432 38.8257V30.6067H2.1759C2.46521 31.0477 3.1311 32.3529 3.1311 35.0293C3.1311 35.3537 3.39386 35.6165 3.71826 35.6165C4.04236 35.6165 4.30542 35.3537 4.30542 35.0293C4.30542 32.8342 3.89771 31.4352 3.51654 30.6067H4.68079C4.9704 31.0477 5.63599 32.3529 5.63599 35.0293C5.63599 35.3537 5.89874 35.6165 6.22314 35.6165C6.54755 35.6165 6.8103 35.3537 6.8103 35.0293C6.8103 32.8342 6.40259 31.4352 6.02142 30.6067H6.99982C7.77954 31.9974 8.68591 34.5261 8.7619 38.8257H1.17432ZM18.1604 22.4658V33.8159H9.40186C9.13818 32.6163 8.77869 31.5448 8.32397 30.6067H8.72803C9.05243 30.6067 9.31519 30.3439 9.31519 30.0195V27.6968C11.0196 26.6754 12.4619 24.924 13.6261 22.4658H18.1604ZM18.1604 7.43652V18.7866H15.0067C15.9692 15.545 16.5656 11.669 16.7596 7.43652H18.1604ZM13.8501 18.5577C12.5565 22.8592 10.6299 25.7529 8.2785 26.9275H6.83075C10.1538 23.6612 11.1432 16.0577 11.1893 15.6891C11.2296 15.3674 11.0013 15.0742 10.6793 15.0339C10.3577 14.9936 10.0644 15.2219 10.0241 15.5435C10.0211 15.5682 9.70795 18.0267 8.87238 20.6851C7.82166 24.0289 6.43005 26.1826 4.84283 26.9275H3.48236C4.54254 25.6995 5.39062 23.7134 6.01257 20.9918C6.64215 18.2373 6.80237 15.7571 6.80908 15.6531C6.82922 15.3296 6.58325 15.0507 6.25977 15.0305C5.93567 15.0107 5.65735 15.256 5.63721 15.5795C5.47028 18.2364 4.43756 25.3738 1.6922 26.9275H1.17432V4.93164H15.6531C15.6091 10.0739 14.9881 14.7748 13.8501 18.5577ZM38.8257 3.75732H1.17432V1.17432H38.8257V3.75732Z" fill="#585858"/>
<path d="M34.9902 6.84937C34.9902 6.52496 34.7275 6.26221 34.4031 6.26221H21.2524C20.928 6.26221 20.6653 6.52496 20.6653 6.84937V19.3738C20.6653 19.6979 20.928 19.9609 21.2524 19.9609H34.4031C34.7275 19.9609 34.9902 19.6979 34.9902 19.3738V6.84937ZM33.8159 18.7866H21.8396V7.43652H33.8159V18.7866Z" fill="#585858"/>
<path d="M34.4031 21.2915H21.2524C20.928 21.2915 20.6653 21.5546 20.6653 21.8787V34.4031C20.6653 34.7275 20.928 34.9902 21.2524 34.9902H34.4031C34.7275 34.9902 34.9902 34.7275 34.9902 34.4031V21.8787C34.9902 21.5546 34.7275 21.2915 34.4031 21.2915ZM33.8159 33.8159H21.8396V22.4658H33.8159V33.8159Z" fill="#585858"/>
</svg>
