<svg width="40" height="35" viewBox="0 0 40 35" fill="none" xmlns="http://www.w3.org/2000/svg">
<path d="M39.9927 28.3414L36.9482 8.36482C36.7284 6.92141 35.3084 5.8334 33.6441 5.8334H14.1666C13.706 5.8334 13.3333 6.15955 13.3333 6.56259C13.3333 6.96564 13.706 7.29178 14.1666 7.29178H33.6442C34.4759 7.29178 35.1864 7.83579 35.2962 8.55712L36.4372 16.0418H14.1666C6.355 16.0417 0 21.6023 0 28.4375C0 28.8406 0.372734 29.1667 0.833359 29.1667H39.1667C39.4068 29.1667 39.6355 29.0763 39.7934 28.9182C39.952 28.7594 40.0245 28.5493 39.9927 28.3414ZM1.69438 27.7083C2.12484 22.016 7.55453 17.5 14.1666 17.5H36.6594L38.2145 27.7083H1.69438Z" fill="#585858"/>
<path d="M13.3334 24.0625C14.2538 24.0625 15 23.4096 15 22.6042C15 21.7988 14.2538 21.1459 13.3334 21.1459C12.4129 21.1459 11.6667 21.7988 11.6667 22.6042C11.6667 23.4096 12.4129 24.0625 13.3334 24.0625Z" fill="#585858"/>
<path d="M20 24.0625C20.9205 24.0625 21.6666 23.4096 21.6666 22.6042C21.6666 21.7988 20.9205 21.1459 20 21.1459C19.0796 21.1459 18.3334 21.7988 18.3334 22.6042C18.3334 23.4096 19.0796 24.0625 20 24.0625Z" fill="#585858"/>
<path d="M26.6666 24.0625C27.5871 24.0625 28.3333 23.4096 28.3333 22.6042C28.3333 21.7988 27.5871 21.1459 26.6666 21.1459C25.7462 21.1459 25 21.7988 25 22.6042C25 23.4096 25.7462 24.0625 26.6666 24.0625Z" fill="#585858"/>
</svg>
