<svg width="40" height="40" viewBox="0 0 40 40" fill="none" xmlns="http://www.w3.org/2000/svg">
<path d="M39.1206 30.6667H39.1486L38.99 29.882L34.898 5.33333H11.6666V4C11.6666 2.52933 12.8626 1.33333 14.3333 1.33333C15.804 1.33333 17 2.52933 17 4C17 4.36867 17.2986 4.66667 17.6666 4.66667C18.0346 4.66667 18.3333 4.36867 18.3333 4C18.3333 1.794 16.5393 0 14.3333 0C12.1273 0 10.3333 1.794 10.3333 4V5.33333H5.10197L1.01064 29.882L0.851974 30.6667H0.879975H17V36.6667H15V40H25V36.6667H23V30.6667H39.1206ZM6.23131 6.66667H10.3333V11.3333C10.3333 11.702 10.632 12 11 12C11.368 12 11.6666 11.702 11.6666 11.3333V6.66667H33.7686L36.7686 24.6667H3.23131L6.23131 6.66667ZM2.48131 29.3333L3.15464 26H36.8453L37.5186 29.3333H23H17H2.48131ZM23.6666 38V38.6667H16.3333V38H17H23H23.6666ZM21.6666 36.6667H18.3333V30.6667H21.6666V36.6667Z" fill="#585858"/>
</svg>
