<svg width="40" height="35" viewBox="0 0 40 35" fill="none" xmlns="http://www.w3.org/2000/svg">
<g clip-path="url(#clip0)">
<path d="M37.6645 6.44089H2.33546C2.10098 6.44089 1.91083 6.60727 1.91083 6.81244V25.6495C1.91083 25.8547 2.10098 26.021 2.33546 26.021H37.6645C37.8991 26.021 38.0892 25.8547 38.0892 25.6495V6.81244C38.0892 6.60719 37.8991 6.44089 37.6645 6.44089ZM37.2399 25.2779H2.76008V7.18399H37.2399V25.2779Z" fill="#585858"/>
<path d="M38.1363 4.76892H1.86378C0.836093 4.76892 0 5.5005 0 6.39965V26.0622C0 26.9614 0.836093 27.693 1.86378 27.693H14.4619L13.7901 29.1164H11.0919C10.7401 29.1164 10.4549 29.366 10.4549 29.6738C10.4549 29.9816 10.7401 30.2311 11.0919 30.2311H28.9084C29.2603 30.2311 29.5454 29.9816 29.5454 29.6738C29.5454 29.366 29.2603 29.1164 28.9084 29.1164H26.2102L25.5383 27.693H38.1365C39.1642 27.693 40.0002 26.9614 40.0002 26.0622V6.39965C40 5.5005 39.164 4.76892 38.1363 4.76892ZM24.8318 29.1165H15.1682L15.8401 27.693H24.16L24.8318 29.1165ZM38.7261 26.0623C38.7261 26.3469 38.4616 26.5784 38.1363 26.5784H1.86378C1.53851 26.5784 1.27389 26.3468 1.27389 26.0623V6.39965C1.27389 6.11505 1.53851 5.8835 1.86378 5.8835H38.1363C38.4616 5.8835 38.7261 6.11505 38.7261 6.39965V26.0623Z" fill="#585858"/>
</g>
<defs>
<clipPath id="clip0">
<rect width="40" height="35" fill="white"/>
</clipPath>
</defs>
</svg>
