<svg width="40" height="40" viewBox="0 0 40 40" fill="none" xmlns="http://www.w3.org/2000/svg">
<g clip-path="url(#clip0)">
<path d="M35.8688 10H4.13121C1.8532 10 0 11.691 0 13.7697V23.2397C0 25.2213 1.68476 26.8494 3.81558 26.9973V29.2461C3.81558 29.6625 4.18541 30 4.64182 30H10.96C11.4165 30 11.7863 29.6625 11.7863 29.2461V27.0094H28.2138V29.2461C28.2138 29.6625 28.5837 30 29.0401 30H35.3583C35.8147 30 36.1845 29.6625 36.1845 29.2461V26.9973C38.3156 26.8494 40.0001 25.2213 40.0001 23.2397V13.7697C40 11.6911 38.1468 10 35.8688 10ZM10.1337 28.4921H5.46807V27.0094H10.1338V28.4921H10.1337ZM29.8663 28.4921V27.0094H34.532V28.4921H29.8663ZM38.3475 23.2397C38.3475 24.4868 37.2355 25.5015 35.8688 25.5015H4.13121C2.76449 25.5015 1.65248 24.4868 1.65248 23.2397V13.7697C1.65248 12.5226 2.76449 11.5079 4.13121 11.5079H35.8688C37.2355 11.5079 38.3475 12.5226 38.3475 13.7697V23.2397Z" fill="#585858"/>
<path d="M29.367 24.1485C25.9567 24.1485 23.182 21.6166 23.182 18.5045C23.182 15.3926 25.9567 12.8607 29.367 12.8607C32.7777 12.8607 35.5523 15.3926 35.5523 18.5045C35.5523 21.6167 32.7777 24.1485 29.367 24.1485ZM29.367 14.3687C26.8678 14.3687 24.8345 16.224 24.8345 18.5046C24.8345 20.7854 26.8678 22.6407 29.367 22.6407C31.8665 22.6407 33.8998 20.7854 33.8998 18.5046C33.8998 16.224 31.8665 14.3687 29.367 14.3687Z" fill="#585858"/>
<path d="M26.6173 19.2586C26.1609 19.2586 25.7911 18.9211 25.7911 18.5046C25.7911 16.7054 27.3954 15.2417 29.367 15.2417C29.8234 15.2417 30.1932 15.5791 30.1932 15.9956C30.1932 16.4121 29.8234 16.7496 29.367 16.7496C28.3064 16.7496 27.4436 17.5369 27.4436 18.5046C27.4436 18.9211 27.0738 19.2586 26.6173 19.2586Z" fill="#585858"/>
<path d="M14.6636 16.2286H4.315C3.85858 16.2286 3.48875 15.8911 3.48875 15.4747C3.48875 15.0582 3.85858 14.7208 4.315 14.7208H14.6636C15.12 14.7208 15.4899 15.0582 15.4899 15.4747C15.4899 15.8912 15.12 16.2286 14.6636 16.2286Z" fill="#585858"/>
<path d="M14.6636 19.2586H4.315C3.85858 19.2586 3.48875 18.9211 3.48875 18.5047C3.48875 18.0882 3.85858 17.7507 4.315 17.7507H14.6636C15.12 17.7507 15.4899 18.0882 15.4899 18.5047C15.4899 18.9211 15.12 19.2586 14.6636 19.2586Z" fill="#585858"/>
<path d="M14.6636 22.2885H4.315C3.85858 22.2885 3.48875 21.9511 3.48875 21.5346C3.48875 21.1181 3.85858 20.7806 4.315 20.7806H14.6636C15.12 20.7806 15.4899 21.1181 15.4899 21.5346C15.4899 21.951 15.12 22.2885 14.6636 22.2885Z" fill="#585858"/>
</g>
<defs>
<clipPath id="clip0">
<rect width="40" height="40" fill="white"/>
</clipPath>
</defs>
</svg>
