<svg width="40" height="40" viewBox="0 0 40 40" fill="none" xmlns="http://www.w3.org/2000/svg">
<g clip-path="url(#clip0)">
<path d="M38.9765 4.68019C39.3361 4.68019 39.6277 4.3887 39.6277 4.02897V0.65122C39.6277 0.291486 39.3361 0 38.9765 0H1.02369C0.664083 0 0.372467 0.291486 0.372467 0.65122V4.02897C0.372467 4.3887 0.664083 4.68019 1.02369 4.68019H2.25462V24.9727H1.02369C0.664083 24.9727 0.372467 25.2642 0.372467 25.6239V29.0017C0.372467 29.3614 0.664083 29.6529 1.02369 29.6529H19.3489V31.6585L12.2419 38.8924C11.9898 39.149 11.9935 39.5613 12.2501 39.8132C12.5065 40.0656 12.919 40.0616 13.171 39.805L15.6908 37.2403H24.3094L26.8292 39.805C27.0811 40.0616 27.4937 40.0653 27.7501 39.8132C28.0067 39.5612 28.0104 39.1489 27.7583 38.8924L20.6513 31.6585V29.6529H38.9765C39.3361 29.6529 39.6277 29.3614 39.6277 29.0017V25.6239C39.6277 25.2642 39.3361 24.9727 38.9765 24.9727H37.7456V4.68019H38.9765ZM23.0297 35.9378H16.9704L20 32.854L23.0297 35.9378ZM38.3253 26.275V28.3503H1.67491V26.275H2.90584H37.0944H38.3253ZM3.55706 24.9726V4.68019H36.4431V24.9726H3.55706ZM1.67491 3.37775V1.30244H38.3253V3.37775C36.374 3.37775 3.48712 3.37775 1.67491 3.37775Z" fill="#585858"/>
</g>
<defs>
<clipPath id="clip0">
<rect width="40" height="40" fill="white"/>
</clipPath>
</defs>
</svg>
