<svg width="40" height="40" viewBox="0 0 40 40" fill="none" xmlns="http://www.w3.org/2000/svg">
<path d="M36 0H4.00002C1.79998 0 0 1.79998 0 4.00002V36C0 38.1999 1.79998 40 4.00002 40H36C38.1999 40 40 38.2 40 36V4.00002C40 1.79998 38.1999 0 36 0ZM38.6667 36C38.6667 37.4667 37.4667 38.6667 36 38.6667H4.00002C2.53332 38.6667 1.33334 37.4667 1.33334 36V4.00002C1.33334 2.53332 2.53332 1.33334 4.00002 1.33334H36C37.4667 1.33334 38.6667 2.53332 38.6667 4.00002V36Z" fill="#585858"/>
<path d="M34.9998 2.66667H4.99982C3.73311 2.66667 2.66649 3.73338 2.66649 5V35C2.66649 36.2667 3.73319 37.3333 4.99982 37.3333H34.9998C36.2665 37.3333 37.3331 36.2666 37.3331 35V5C37.3331 3.7333 36.2664 2.66667 34.9998 2.66667ZM35.9998 35C35.9998 35.5333 35.5331 36 34.9998 36H4.99982C4.46646 36 3.99983 35.5333 3.99983 35V5C3.99983 4.46665 4.46646 4.00001 4.99982 4.00001H34.9998C35.5331 4.00001 35.9998 4.46665 35.9998 5V35Z" fill="#585858"/>
<path d="M20.0001 10C14.4667 10 10.0001 14.4667 10.0001 20C10.0001 25.5334 14.4667 30 20.0001 30C25.5334 30 30.0001 25.5334 30.0001 20C30.0001 14.4667 25.5334 10 20.0001 10ZM20.6668 28.6415V27.3333C20.6668 26.9333 20.4002 26.6667 20.0002 26.6667C19.6002 26.6667 19.3335 26.9333 19.3335 27.3333V28.6415C14.8472 28.3031 11.3336 24.5756 11.3336 20C11.3336 15.4243 14.8472 11.6968 19.3335 11.3584V12.6666C19.3335 13.0666 19.6002 13.3332 20.0002 13.3332C20.4002 13.3332 20.6668 13.0666 20.6668 12.6666V11.3584C25.1531 11.6968 28.6668 15.4243 28.6668 20C28.6668 24.5756 25.1531 28.3031 20.6668 28.6415Z" fill="#585858"/>
<path d="M15.3332 17.3333C13.8665 17.3333 12.6665 18.5333 12.6665 20C12.6665 21.4667 13.8665 22.6666 15.3332 22.6666C16.7999 22.6666 17.9999 21.4667 17.9999 20C17.9999 18.5333 16.7999 17.3333 15.3332 17.3333ZM15.3332 21.3333C14.5999 21.3333 13.9999 20.7333 13.9999 20C13.9999 19.2666 14.5999 18.6666 15.3332 18.6666C16.0666 18.6666 16.6666 19.2666 16.6666 20C16.6666 20.7333 16.0666 21.3333 15.3332 21.3333Z" fill="#585858"/>
<path d="M22.0001 20C22.0001 21.4667 23.2001 22.6666 24.6668 22.6666C26.1335 22.6666 27.3335 21.4667 27.3335 20C27.3335 18.5333 26.1335 17.3333 24.6668 17.3333C23.2001 17.3333 22.0001 18.5333 22.0001 20ZM26.0001 20C26.0001 20.7333 25.4001 21.3333 24.6667 21.3333C23.9334 21.3333 23.3334 20.7333 23.3334 20C23.3334 19.2666 23.9334 18.6666 24.6667 18.6666C25.4001 18.6666 26.0001 19.2666 26.0001 20Z" fill="#585858"/>
<path d="M19.9998 19.3333C19.5998 19.3333 19.3332 19.6 19.3332 20C19.3332 20.4 19.5998 20.6666 19.9998 20.6666C20.3998 20.6666 20.6665 20.4 20.6665 20C20.6665 19.6 20.3998 19.3333 19.9998 19.3333Z" fill="#585858"/>
</svg>
