<svg width="40" height="40" viewBox="0 0 40 40" fill="none" xmlns="http://www.w3.org/2000/svg">
<path d="M30.1577 0H9.84227C7.7224 0 6 1.70678 6 3.80744V36.1926C6 38.2932 7.7224 40 9.84227 40H30.1577C32.2776 40 34 38.2932 34 36.1926V3.80744C34 1.70678 32.2776 0 30.1577 0ZM32.7192 36.1926C32.7192 37.593 31.571 38.7309 30.1577 38.7309H9.84227C8.42902 38.7309 7.28076 37.593 7.28076 36.1926V5.07659H32.7192V36.1926ZM7.28076 3.80744C7.28076 2.407 8.42902 1.26915 9.84227 1.26915H30.1577C31.571 1.26915 32.7192 2.407 32.7192 3.80744H7.28076Z" fill="#585858"/>
<path d="M20 36.5427C24.6814 36.5427 28.4795 32.779 28.4795 28.14C28.4795 23.5011 24.6814 19.7374 20 19.7374C15.3186 19.7374 11.5205 23.5011 11.5205 28.14C11.5205 32.779 15.3186 36.5427 20 36.5427ZM20 21.0503C23.9748 21.0503 27.1988 24.2451 27.1988 28.1838C27.1988 32.0788 23.9748 35.3173 20 35.3173C16.0253 35.3173 12.8013 32.1225 12.8013 28.1838C12.8013 24.2451 16.0253 21.0503 20 21.0503Z" fill="#585858"/>
<path d="M20.0002 32.9978C22.6942 32.9978 24.8582 30.8534 24.8582 28.1838C24.8582 25.5142 22.65 23.3698 20.0002 23.3698C17.3503 23.3698 15.1421 25.5142 15.1421 28.1838C15.1421 30.8096 17.3062 32.9978 20.0002 32.9978ZM20.0002 24.5952C21.9876 24.5952 23.5775 26.1707 23.5775 28.1401C23.5775 30.1094 21.9434 31.6849 20.0002 31.6849C18.057 31.6849 16.4229 30.1094 16.4229 28.1401C16.4229 26.2145 18.0128 24.5952 20.0002 24.5952Z" fill="#585858"/>
<path d="M19.9999 18.3807C23.3564 18.3807 26.0946 15.6674 26.0946 12.3414C26.0946 9.01532 23.3564 6.30197 19.9999 6.30197C16.6435 6.30197 13.9053 9.01532 13.9053 12.3414C13.9053 15.6674 16.6435 18.3807 19.9999 18.3807ZM19.9999 7.57112C22.6498 7.57112 24.8138 9.71554 24.8138 12.3414C24.8138 14.9672 22.6498 17.1116 19.9999 17.1116C17.3501 17.1116 15.186 14.9672 15.186 12.3414C15.186 9.71554 17.3501 7.57112 19.9999 7.57112Z" fill="#585858"/>
<path d="M20.0001 15.2298C21.59 15.2298 22.9149 13.9169 22.9149 12.3414C22.9149 10.7659 21.59 9.45296 20.0001 9.45296C18.4102 9.45296 17.0853 10.7659 17.0853 12.3414C17.0853 13.9169 18.4102 15.2298 20.0001 15.2298ZM20.0001 10.7221C20.8834 10.7221 21.6342 11.4661 21.6342 12.3414C21.6342 13.2166 20.8834 13.9606 20.0001 13.9606C19.1168 13.9606 18.366 13.2166 18.366 12.3414C18.366 11.4223 19.1168 10.7221 20.0001 10.7221Z" fill="#585858"/>
<path d="M10.2397 37.0241C11.0202 37.0241 11.6529 36.3971 11.6529 35.6236C11.6529 34.8502 11.0202 34.2232 10.2397 34.2232C9.45913 34.2232 8.8264 34.8502 8.8264 35.6236C8.8264 36.3971 9.45913 37.0241 10.2397 37.0241Z" fill="#585858"/>
<path d="M29.8927 37.0241C30.6732 37.0241 31.3059 36.3971 31.3059 35.6236C31.3059 34.8502 30.6732 34.2232 29.8927 34.2232C29.1121 34.2232 28.4794 34.8502 28.4794 35.6236C28.4794 36.3971 29.1121 37.0241 29.8927 37.0241Z" fill="#585858"/>
</svg>
