<svg width="40" height="35" viewBox="0 0 40 35" fill="none" xmlns="http://www.w3.org/2000/svg">
<path d="M39.2841 2.72095H0.715884C0.313199 2.72095 0 2.995 0 3.34735V29.108C0 29.4603 0.313199 29.7344 0.715884 29.7344H5.50336V31.6527C5.50336 32.0051 5.81655 32.2791 6.21924 32.2791H12.1253C12.528 32.2791 12.8412 32.0051 12.8412 31.6527V29.7344H27.1588V31.6527C27.1588 32.0051 27.472 32.2791 27.8747 32.2791H33.7808C34.1834 32.2791 34.4966 32.0051 34.4966 31.6527V29.7344H39.2841C39.6868 29.7344 40 29.4603 40 29.108V3.34735C40 2.995 39.6868 2.72095 39.2841 2.72095ZM11.4094 30.9872H6.93512V29.6952H11.4094V30.9872ZM33.0649 30.9872H28.5906V29.6952H33.0649V30.9872ZM33.7808 28.4816H27.8747H12.1253H6.21924H1.43177V3.97374H38.5235V28.4816H33.7808Z" fill="#585858"/>
<path d="M35.8837 5.61798H6.08503C5.68235 5.61798 5.36915 5.89203 5.36915 6.24438V8.31932H4.25058C3.8479 8.31932 3.5347 8.59337 3.5347 8.94572V13.5263C3.5347 13.8786 3.8479 14.1527 4.25058 14.1527H5.36915V18.2634H4.25058C3.8479 18.2634 3.5347 18.5374 3.5347 18.8898V23.4703C3.5347 23.8227 3.8479 24.0967 4.25058 24.0967H5.36915V26.1717C5.36915 26.524 5.68235 26.7981 6.08503 26.7981H35.8837C36.2864 26.7981 36.5996 26.524 36.5996 26.1717V6.24438C36.5996 5.89203 36.2864 5.61798 35.8837 5.61798ZM4.96647 12.8999V9.57212H6.08503H7.2036V12.8999H6.08503H4.96647ZM4.96647 22.8439V19.5162H6.08503H7.2036V22.8439H6.08503H4.96647ZM35.1678 25.5453H6.80092V24.0967H7.91949C8.32217 24.0967 8.63537 23.8227 8.63537 23.4703V18.8898C8.63537 18.5374 8.32217 18.2634 7.91949 18.2634H6.80092V14.1527H7.91949C8.32217 14.1527 8.63537 13.8786 8.63537 13.5263V8.94572C8.63537 8.59337 8.32217 8.31932 7.91949 8.31932H6.80092V6.87078H35.1678V25.5453Z" fill="#585858"/>
<path d="M27.4721 11.6471C24.6085 11.6471 22.2819 13.6829 22.2819 16.1885C22.3267 18.6941 24.6533 20.7299 27.4721 20.7299C30.3356 20.7299 32.6622 18.6941 32.6622 16.1885C32.6622 13.6829 30.3356 11.6471 27.4721 11.6471ZM27.4721 19.5162C25.4139 19.5162 23.7137 18.0285 23.7137 16.2276C23.7137 14.4267 25.4139 12.939 27.4721 12.939C29.5303 12.939 31.2305 14.4267 31.2305 16.2276C31.2305 18.0285 29.5303 19.5162 27.4721 19.5162Z" fill="#585858"/>
<path d="M27.472 14.0744C26.1298 14.0744 25.0559 15.014 25.0559 16.1885C25.1007 17.363 26.1745 18.3026 27.472 18.3026C28.8143 18.3026 29.8881 17.363 29.8881 16.1885C29.8881 15.014 28.8143 14.0744 27.472 14.0744ZM27.472 17.0889C26.9351 17.0889 26.4877 16.6974 26.4877 16.2276C26.5324 15.7578 26.9351 15.3663 27.472 15.3663C28.009 15.3663 28.4564 15.7578 28.4564 16.2276C28.4564 16.6974 28.009 17.0889 27.472 17.0889Z" fill="#585858"/>
</svg>
