<svg width="40" height="40" viewBox="0 0 40 40" fill="none" xmlns="http://www.w3.org/2000/svg">
<path d="M39.2009 34.305C34.4637 29.5678 32.1598 27.264 32.1222 27.2264C31.8933 26.9977 31.5224 26.9977 31.2936 27.2264C31.0648 27.4553 31.0648 27.8262 31.2936 28.055L35.8142 32.5755L33.6296 34.7602L21.9515 23.0821L24.1362 20.8977L29.9655 26.727C30.1944 26.9557 30.5652 26.9557 30.7941 26.727C31.0229 26.498 31.0229 26.1272 30.7941 25.8984L27.4565 22.5608L31.5439 18.023C31.7605 17.7827 31.7412 17.4123 31.5007 17.1956C31.2603 16.979 30.8898 16.9984 30.6733 17.2388L26.6267 21.7311C22.1195 17.2238 22.1831 17.1905 21.5926 16.8967C20.9948 16.5638 19.977 16.4655 19.1041 16.933C18.0369 16.5586 16.6589 16.0752 15.6266 15.713L26.0258 6.34563L33.6332 13.9531L31.983 15.7851C31.7665 16.0255 31.7858 16.3959 32.0262 16.6125C32.2666 16.8291 32.637 16.8097 32.8537 16.5693L36.8931 12.085C37.358 11.5691 37.3375 10.7802 36.8463 10.2889L35.6485 9.09109L39.5391 5.20055C40.1413 4.5982 40.1413 3.61813 39.5391 3.01602L36.9969 0.473829C36.3933 -0.129921 35.4162 -0.129921 34.8123 0.473907L30.9219 4.36445L29.6898 3.13242C29.1985 2.64141 28.4095 2.62102 27.8939 3.08578C27.7468 3.21828 15.6074 14.1533 14.3668 15.2708L13.147 14.8427L11.6927 13.3885L14.5676 10.5136C15.2763 9.805 15.2762 8.65844 14.5677 7.94985C14.2658 7.64797 9.88727 3.26961 8.20602 1.58844C7.49781 0.879923 6.35109 0.879767 5.64258 1.58828L2.70078 4.53008C1.45867 3.9043 0 4.81602 0 6.19563C7.8125e-05 6.69359 0.193984 7.16164 0.545937 7.51367C11.6344 18.602 10.8971 17.91 11.2323 18.0944C10.8399 18.4479 1.3575 26.9897 0.431016 27.8242C-0.12375 28.3249 -0.144766 29.1887 0.382109 29.7162L10.2629 39.5969C10.7971 40.1305 11.6596 40.097 12.155 39.5473C12.5816 39.0737 23.1449 27.3473 23.8152 26.6031C24.5471 27.335 35.0608 37.8486 35.359 38.1468C35.8719 38.6598 36.5539 38.9427 37.2801 38.9427C39.6825 38.9427 40.9161 36.0201 39.2009 34.305ZM35.9048 1.1932C36.1183 1.1932 35.9621 1.09625 38.7105 3.84461C38.8559 3.98992 38.8558 4.22656 38.7104 4.37195L36.6843 6.39813L33.6148 3.32867C35.8041 1.13945 35.695 1.1932 35.9048 1.1932ZM32.7863 4.15727L35.8558 7.22672L34.8199 8.26242L31.7505 5.19305L32.7863 4.15727ZM28.6783 3.95633C28.8078 3.83977 28.3515 3.45094 36.0177 11.1174C36.0678 11.1676 36.0699 11.248 36.0224 11.3007L34.4186 13.0812L26.8977 5.56031L28.6783 3.95633ZM18.8752 19.0033C19.0791 18.0531 20.1154 17.5211 21.0082 17.9179C21.4112 18.0962 21.5052 18.2667 23.3076 20.0691L21.1229 22.2536C19.267 20.3977 18.6518 20.0457 18.8752 19.0033ZM13.9269 9.23188C13.9269 9.58742 14.0017 9.42235 10.8641 12.5601L9.74086 11.4369L13.0691 8.10875C13.7705 8.81008 13.9269 8.89774 13.9269 9.23188ZM12.2404 7.28008L8.91219 10.6082L7.69852 9.39453L11.0268 6.06641L12.2404 7.28008ZM8.98445 4.02438L10.1981 5.23789L6.86992 8.56602L5.65633 7.35242L8.98445 4.02438ZM6.9243 2.22938C7.26008 2.22938 7.33242 2.37219 8.15586 3.19563L4.82766 6.52375L3.59609 5.29219C6.73672 2.15164 6.57047 2.22938 6.9243 2.22938ZM1.1718 6.19563C1.1718 5.58328 1.91641 5.26953 2.35305 5.70633C13.1628 16.5161 12.4466 15.8391 12.633 15.9045C15.8858 17.0458 14.3488 16.5066 18.1193 17.8295C17.8537 18.2279 17.7062 18.6852 17.6739 19.1399C17.6737 19.1398 12.5305 17.3352 12.5304 17.3352C11.8548 17.0981 11.7805 17.0909 11.6398 16.9502C0.582813 5.89328 1.17195 6.60524 1.1718 6.19563ZM15.0137 34.6231L13.4899 33.0992C13.261 32.8705 12.8902 32.8705 12.6613 33.0992C12.4325 33.3281 12.4325 33.699 12.6613 33.9278L14.2284 35.4948C11.197 38.8601 11.2316 38.9087 11.0914 38.768L9.62578 37.3023L10.7679 36.1602C10.9967 35.9313 10.9967 35.5605 10.7679 35.3316C10.539 35.1029 10.1681 35.1029 9.9393 35.3316L8.79719 36.4738L7.58555 35.2621L8.72766 34.12C8.95648 33.8911 8.95648 33.5202 8.72766 33.2913C8.49875 33.0626 8.12789 33.0626 7.89906 33.2913L6.75695 34.4334L5.54547 33.222L6.68758 32.0798C6.91641 31.8509 6.91641 31.4801 6.68758 31.2512C6.45867 31.0225 6.08781 31.0225 5.85898 31.2512L4.71688 32.3934L3.50516 31.1816L4.64734 30.0394C4.87617 29.8105 4.87617 29.4396 4.64727 29.2109C4.41852 28.9821 4.04758 28.982 3.81875 29.2109L2.67664 30.3531C1.09188 28.7685 1.16977 28.8711 1.1718 28.7898C1.17406 28.708 0.949297 28.9343 4.48391 25.7504L11.4048 32.6715C11.6337 32.9002 12.0045 32.9003 12.2334 32.6715C12.4623 32.4426 12.4623 32.0717 12.2334 31.8429L5.35586 24.9652L12.4706 18.5562L17.9159 20.4667C18.2265 21.141 18.3748 21.1627 22.9855 25.7734L15.0137 34.6231ZM37.2801 37.7709C36.8675 37.7709 36.4796 37.6102 36.1877 37.3182L34.4582 35.5887L36.6428 33.404L38.3724 35.1336C39.3487 36.11 38.645 37.7709 37.2801 37.7709Z" fill="#585858"/>
</svg>
