<svg width="40" height="40" viewBox="0 0 40 40" fill="none" xmlns="http://www.w3.org/2000/svg">
<g clip-path="url(#clip0)">
<path d="M19.9219 36.4452C21.3458 36.4452 22.5001 35.291 22.5001 33.8671C22.5001 32.4433 21.3458 31.289 19.9219 31.289C18.4981 31.289 17.3438 32.4433 17.3438 33.8671C17.3438 35.291 18.4981 36.4452 19.9219 36.4452Z" fill="#585858"/>
<path d="M39.5808 12.0987C34.4457 6.58913 27.492 3.55477 20 3.55469C12.5086 3.55477 5.55496 6.58913 0.419734 12.0987C-0.168546 12.73 -0.133781 13.7187 0.497468 14.3071C1.1288 14.8954 2.11747 14.8607 2.70582 14.2294C7.24331 9.36093 13.3852 6.67976 20.0006 6.67968C26.6154 6.67976 32.7572 9.36093 37.2947 14.2294C37.6025 14.5595 38.0197 14.7265 38.4381 14.7265C38.8196 14.7265 39.202 14.5876 39.5031 14.3071C40.1343 13.7187 40.1692 12.73 39.5808 12.0987Z" fill="#585858"/>
<path d="M33.8433 18.5514C30.0474 14.7269 25.1311 12.6207 19.9999 12.6208C14.8674 12.6209 9.95104 14.7272 6.15636 18.5515C5.54855 19.1641 5.55238 20.1534 6.16496 20.7612C6.77753 21.369 7.76683 21.3652 8.37464 20.7526C11.5781 17.524 15.7067 15.7459 19.9999 15.7458C24.2919 15.7457 28.4205 17.5239 31.6251 20.7528C31.9306 21.0605 32.3323 21.2146 32.7342 21.2146C33.132 21.2146 33.5301 21.0635 33.835 20.7611C34.4474 20.1532 34.4511 19.1639 33.8433 18.5514Z" fill="#585858"/>
<path d="M27.5899 25.0228C25.5571 23.0088 22.6432 21.7578 19.9853 21.7578C19.9849 21.7578 19.9844 21.7578 19.9841 21.7578H19.8715C19.871 21.7578 19.8708 21.7578 19.8703 21.7578C17.2123 21.7578 14.2982 23.0089 12.2655 25.0228C11.6525 25.6301 11.6479 26.6194 12.2553 27.2325C12.5608 27.5408 12.963 27.6953 13.3653 27.6953C13.7627 27.6953 14.1603 27.5446 14.4649 27.2428C15.912 25.809 18.0336 24.8828 19.8705 24.8828C19.8707 24.8828 19.871 24.8828 19.8713 24.8828H19.9843C19.9846 24.8828 19.9847 24.8828 19.985 24.8828C21.8217 24.8828 23.9435 25.8091 25.3904 27.2428C26.0034 27.85 26.9928 27.8457 27.6001 27.2325C28.2075 26.6195 28.2029 25.6301 27.5899 25.0228Z" fill="#585858"/>
</g>
<defs>
<clipPath id="clip0">
<rect width="40" height="40" fill="white"/>
</clipPath>
</defs>
</svg>
